Siesta Version  : 5.0.0-alpha-123-gfb8fd7d02
Architecture    : ----
Compiler version: GNU-11.4.0
Compiler flags  : -fallow-argument-mismatch;-O3 -march=native
PP flags        : ----
Libraries       : ----
Parallelisations: none
GEMM3M support
NetCDF support
NetCDF-4 support
Lua support

Runtime information:
* Directory : /home/fnpedron/Siesta/siesta-dev/Tests/09.MolecularDynamics/work/anneal_pt_restart
* Running in serial mode.
>> Start of run:  28-SEP-2023  15:37:43

                           *********************** 
                           *  WELCOME TO SIESTA  * 
                           *********************** 

reinit: Reading from standard input
reinit: Dumping input in INPUT_TMP.57224
************************** Dump of input data file ****************************
%include ../../basejob.fdf
SystemLabel           anneal_pt
MD.TypeOfRun          anneal
MD.AnnealOption       TemperatureAndPressure
MD.InitialTemperature 100 K
MD.TargetTemperature  600 K
MD.TauRelax           25 fs
MD.TargetPressure     10.0 GPa
************************** End of input data file *****************************

reinit: -----------------------------------------------------------------------
reinit: System Name: Water molecules MD
reinit: -----------------------------------------------------------------------
reinit: System Label: anneal_pt
reinit: -----------------------------------------------------------------------

initatom: Reading input for the pseudopotentials and atomic orbitals ----------
Species number:   1 Atomic number:    8 Label: O
Species number:   2 Atomic number:    1 Label: H


---- Processing specs for species: O
Ground state valence configuration:   2s02  2p04
Reading pseudopotential information in formatted form from:
  /home/fnpedron/Siesta/siesta-dev/Tests/Pseudos/O.psf

---- Processing specs for species: H
Ground state valence configuration:   1s01
Reading pseudopotential information in formatted form from:
  /home/fnpedron/Siesta/siesta-dev/Tests/Pseudos/H.psf

---- Pseudopotential check for O 

Pseudized shells:
2s( 2.00) rc: 1.14
2p( 4.00) rc: 1.14
3d( 0.00) rc: 1.14
4f( 0.00) rc: 1.14
Valence configuration for ps generation: (assumed as above)

---- Pseudopotential check for H 

Pseudized shells:
1s( 1.00) rc: 1.25
2p( 0.00) rc: 1.25
3d( 0.00) rc: 1.25
4f( 0.00) rc: 1.25
Valence configuration for ps generation: (assumed as above)
For O, standard SIESTA heuristics set lmxkb to 2
 (one more than the basis l, including polarization orbitals).
Use PS.lmax or PS.KBprojectors blocks to override.
For H, standard SIESTA heuristics set lmxkb to 1
 (one more than the basis l, including polarization orbitals).
Use PS.lmax or PS.KBprojectors blocks to override.

<basis_specs>
===============================================================================
O                    Z=   8    Mass=  15.999        Charge= 0.17977+309
Lmxo=1 Lmxkb= 2    BasisType=split      Semic=F
L=0  Nsemic=0  Cnfigmx=2
          i=1  nzeta=1  polorb=0  (2s)
            splnorm:   0.15000    
               vcte:    40.000    
               rinn:  -0.90000    
               qcoe:    0.0000    
               qyuk:    0.0000    
               qwid:   0.10000E-01
                rcs:    0.0000    
            lambdas:    1.0000    
L=1  Nsemic=0  Cnfigmx=2
          i=1  nzeta=1  polorb=0  (2p)
            splnorm:   0.15000    
               vcte:    40.000    
               rinn:  -0.90000    
               qcoe:    0.0000    
               qyuk:    0.0000    
               qwid:   0.10000E-01
                rcs:    0.0000    
            lambdas:    1.0000    
-------------------------------------------------------------------------------
L=0  Nkbl=1  erefs: 0.17977+309
L=1  Nkbl=1  erefs: 0.17977+309
L=2  Nkbl=1  erefs: 0.17977+309
===============================================================================
</basis_specs>

Using PAO.SplitTailNorm
atom: Called for O                     (Z =   8)
Maximum radius (at nrval) set to   50.00000 8518

read_vps: Pseudopotential generation method:
read_vps: ATM3      Troullier-Martins                       
Valence charge in pseudo generation:    6.00000

xc_check: Exchange-correlation functional:
xc_check: Ceperley-Alder
V l=0 = -2*Zval/r beyond r=  1.1366
V l=1 = -2*Zval/r beyond r=  1.1332
V l=2 = -2*Zval/r beyond r=  1.1298
All V_l potentials equal beyond r=  1.1355
This should be close to max(r_c) in ps generation
All pots = -2*Zval/r beyond r=  1.1366
Using small-core scheme (local charge) for Vlocal

VLOCAL_FROM_CHLOCAL: 99.0% of the norm of Vloc inside     33.667 Ry
VLOCAL_FROM_CHLOCAL: 99.9% of the norm of Vloc inside     76.727 Ry
atom: Maximum radius for chlocal:    1.37241
atom: Maximum radius for r*vlocal+2*Zval:    1.25469

KBgen: Kleinman-Bylander projectors: 
GHOST: No ghost state for L =  0
   l= 0   rc=  1.293209   el= -1.742414   Ekb=  9.076872   kbcos=  0.325320
GHOST: No ghost state for L =  1
   l= 1   rc=  1.284119   el= -0.676589   Ekb= -8.194485   kbcos= -0.396010
GHOST: No ghost state for L =  2
   l= 2   rc=  1.433152   el=  0.013307   Ekb= -2.071665   kbcos= -0.003690

KBgen: Total number of Kleinman-Bylander projectors:   9
atom: -------------------------------------------------------------------------

atom: SANKEY-TYPE ORBITALS:

SPLIT: Orbitals with angular momentum L= 0

SPLIT: Basis orbitals for state 2s

SPLIT: PAO cut-off radius determined from an
SPLIT: energy shift=  0.010000 Ry
Split based on tail norm

   izeta = 1
                 lambda =    1.000000
                     rc =    3.560943
                 energy =   -1.731321
                kinetic =    1.587329
    potential(screened) =   -3.318651
       potential(ionic) =  -11.260325

SPLIT: Orbitals with angular momentum L= 1

SPLIT: Basis orbitals for state 2p

SPLIT: PAO cut-off radius determined from an
SPLIT: energy shift=  0.010000 Ry
Split based on tail norm

   izeta = 1
                 lambda =    1.000000
                     rc =    4.290924
                 energy =   -0.665565
                kinetic =    4.934810
    potential(screened) =   -5.600376
       potential(ionic) =  -13.346429
atom: Total number of Sankey-type orbitals:  4

atm_pop: Valence configuration (for local Pseudopot. screening):
 2s( 2.00)                                                            
 2p( 4.00)                                                            
Vna: chval, zval:    6.00000   6.00000

Vna:  Cut-off radius for the neutral-atom potential:   4.290924

atom: _________________________________________________________________________

<basis_specs>
===============================================================================
H                    Z=   1    Mass=  1.0080        Charge= 0.17977+309
Lmxo=0 Lmxkb= 1    BasisType=split      Semic=F
L=0  Nsemic=0  Cnfigmx=1
          i=1  nzeta=1  polorb=0  (1s)
            splnorm:   0.15000    
               vcte:    40.000    
               rinn:  -0.90000    
               qcoe:    0.0000    
               qyuk:    0.0000    
               qwid:   0.10000E-01
                rcs:    0.0000    
            lambdas:    1.0000    
-------------------------------------------------------------------------------
L=0  Nkbl=1  erefs: 0.17977+309
L=1  Nkbl=1  erefs: 0.17977+309
===============================================================================
</basis_specs>

Using PAO.SplitTailNorm
atom: Called for H                     (Z =   1)
Maximum radius (at nrval) set to   50.00000 8518

read_vps: Pseudopotential generation method:
read_vps: ATM3      Troullier-Martins                       
Valence charge in pseudo generation:    1.00000

xc_check: Exchange-correlation functional:
xc_check: Ceperley-Alder
V l=0 = -2*Zval/r beyond r=  1.2384
V l=1 = -2*Zval/r beyond r=  1.2321
All V_l potentials equal beyond r=  1.2371
This should be close to max(r_c) in ps generation
All pots = -2*Zval/r beyond r=  1.2384
Using small-core scheme (local charge) for Vlocal

VLOCAL_FROM_CHLOCAL: 99.0% of the norm of Vloc inside     28.363 Ry
VLOCAL_FROM_CHLOCAL: 99.9% of the norm of Vloc inside     64.639 Ry
atom: Maximum radius for chlocal:    1.44620
atom: Maximum radius for r*vlocal+2*Zval:    1.31026

KBgen: Kleinman-Bylander projectors: 
GHOST: No ghost state for L =  0
   l= 0   rc=  1.364142   el= -0.467325   Ekb= -2.009475   kbcos= -0.336680
GHOST: No ghost state for L =  1
   l= 1   rc=  1.430269   el=  0.007562   Ekb= -0.503817   kbcos= -0.022554

KBgen: Total number of Kleinman-Bylander projectors:   4
atom: -------------------------------------------------------------------------

atom: SANKEY-TYPE ORBITALS:

SPLIT: Orbitals with angular momentum L= 0

SPLIT: Basis orbitals for state 1s

SPLIT: PAO cut-off radius determined from an
SPLIT: energy shift=  0.010000 Ry
Split based on tail norm

   izeta = 1
                 lambda =    1.000000
                     rc =    5.285354
                 energy =   -0.456120
                kinetic =    0.900445
    potential(screened) =   -1.356565
       potential(ionic) =   -1.890080
atom: Total number of Sankey-type orbitals:  1

atm_pop: Valence configuration (for local Pseudopot. screening):
 1s( 1.00)                                                            
Vna: chval, zval:    1.00000   1.00000

Vna:  Cut-off radius for the neutral-atom potential:   5.285354

atom: _________________________________________________________________________

prinput: Basis input 

PAO.BasisType split     

%block ChemicalSpeciesLabel
    1    8 O                       # Species index, atomic number, species label
    2    1 H                       # Species index, atomic number, species label
%endblock ChemicalSpeciesLabel

%block PAO.Basis                 # Define Basis set
# WARNING: This information might be incomplete!
O                     2                    # Species label, number of l-shells
 n=2   0   1                         # n, l, Nzeta 
   3.561   
   1.000   
 n=2   1   1                         # n, l, Nzeta 
   4.291   
   1.000   
H                     1                    # Species label, number of l-shells
 n=1   0   1                         # n, l, Nzeta 
   5.285   
   1.000   
%endblock PAO.Basis

prinput: ----------------------------------------------------------------------

Dumping basis to NetCDF file O.ion.nc
Dumping basis to NetCDF file H.ion.nc
coor:   Atomic-coordinates input format  =     Cartesian coordinates
coor:                                          (in Angstroms)

ioxv: Reading coordinates and velocities from file
! Info in XV file prevails over previous structure input

siesta: Atomic coordinates (Bohr) and species
siesta:      0.04068  -0.09324  -0.01331  1        1
siesta:      1.39878   1.32834   0.04549  2        2
siesta:     -1.42479   1.21969  -0.05416  2        3
siesta:     -0.03078   0.09200   5.46268  1        4
siesta:      1.34551  -1.31378   5.18590  2        5
siesta:     -1.47535  -1.20987   5.72273  2        6

siesta: System type = chain     

initatomlists: Number of atoms, orbitals, and projectors:      6    12    34

siesta: ******************** Simulation parameters ****************************
siesta:
siesta: The following are some of the parameters of the simulation.
siesta: A complete list of the parameters used, including default values,
siesta: can be found in file out.fdf
siesta:
redata: Spin configuration                          = none
redata: Number of spin components                   = 1
redata: Time-Reversal Symmetry                      = T
redata: Spin spiral                                 = F
redata: Long output                                 =   F
redata: Number of Atomic Species                    =        2
redata: Charge density info will appear in .RHO file
redata: Write Mulliken Pop.                         = NO
redata: Matel table size (NRTAB)                    =     1024
redata: Mesh Cutoff                                 =   100.0000 Ry
redata: Net charge of the system                    =     0.0000 |e|
redata: Min. number of SCF Iter                     =        0
redata: Max. number of SCF Iter                     =     1000
redata: SCF convergence failure will abort job
redata: SCF mix quantity                            = Hamiltonian
redata: Mix DM or H after convergence               =   F
redata: Recompute H after scf cycle                 =   F
redata: Mix DM in first SCF step                    =   T
redata: Write Pulay info on disk                    =   F
redata: New DM Occupancy tolerance                  = 0.000000000001
redata: No kicks to SCF
redata: DM Mixing Weight for Kicks                  =     0.5000
redata: Require Harris convergence for SCF          =   F
redata: Harris energy tolerance for SCF             =     0.000100 eV
redata: Require DM convergence for SCF              =   T
redata: DM tolerance for SCF                        =     0.000100
redata: Require EDM convergence for SCF             =   F
redata: EDM tolerance for SCF                       =     0.001000 eV
redata: Require H convergence for SCF               =   T
redata: Hamiltonian tolerance for SCF               =     0.001000 eV
redata: Require (free) Energy convergence for SCF   =   F
redata: (free) Energy tolerance for SCF             =     0.000100 eV
redata: Using DFT-D3 dispersion                     =   F
redata: Using Saved Data (generic)                  =   F
redata: Use continuation files for DM               =   F
redata: Neglect nonoverlap interactions             =   F
redata: Method of Calculation                       = Diagonalization
redata: Electronic Temperature                      =   299.9863 K
redata: Fix the spin of the system                  =   F
redata: Max. number of TDED Iter                    =        1
redata: Number of TDED substeps                     =        3
redata: Dynamics option                             = Annealing MD run
redata: Initial MD time step                        =        1
redata:   Final MD time step                        =       10
redata: Length of MD time step                      =     1.0000 fs
redata: Initial Temperature of MD run               =   100.0000 K
redata: Annealing Option                            = Temperature and Pressure
redata: Target Temperature                          =   600.0000 Kelvin
redata: Target Pressure                             =     0.0624 eV/Ang**3
redata: Annealing Relaxation Time                   =    25.0000 fs
redata: Approx. Bulk Modulus                        =     0.6241 eV/Ang**3
mix.SCF: Pulay mixing                            = Pulay
mix.SCF:    Variant                              = stable
mix.SCF:    History steps                        = 2
mix.SCF:    Linear mixing weight                 =     0.250000
mix.SCF:    Mixing weight                        =     0.250000
mix.SCF:    SVD condition                        = 0.1000E-07
redata: Save all siesta data in one NC              =   F
redata: ***********************************************************************

%block SCF.Mixers
  Pulay
%endblock SCF.Mixers

%block SCF.Mixer.Pulay
  # Mixing method
  method pulay
  variant stable

  # Mixing options
  weight 0.2500
  weight.linear 0.2500
  history 2
%endblock SCF.Mixer.Pulay

Size of DM history Fstack: 1
Total number of electrons:    16.000000
Total ionic charge:    16.000000

siesta: k-grid: Number of k-points = 1
siesta: k-point is Gamma-only

diag: Algorithm                                     = D&C
diag: Used triangular part                          = Lower
diag: Absolute tolerance                            =  0.100E-15
diag: Orthogonalization factor                      =  0.100E-05
diag: Memory factor                                 =  1.0000


ts: **************************************************************
ts: Save H and S matrices                           =    F
ts: Save DM and EDM matrices                        =    F
ts: Only save the overlap matrix S                  =    F
ts: **************************************************************

************************ Begin: TS CHECKS AND WARNINGS ************************
************************ End: TS CHECKS AND WARNINGS **************************


                     ====================================
                        Begin MD step =      1
                     ====================================

outcoor: Atomic coordinates (Ang):                          
    0.02152719   -0.04934056   -0.00704160   1       1  O
    0.74020332    0.70292917    0.02407208   2       2  H
   -0.75396657    0.64543120   -0.02866123   2       3  H
   -0.01628910    0.04868541    2.89072592   1       4  O
    0.71201239   -0.69522137    2.74426249   2       5  H
   -0.78072312   -0.64023527    3.02833608   2       6  H

outcell: Unit cell vectors (Ang):
        9.596870    0.000000    0.000000
        0.000000    9.603682    0.000000
        0.000000    0.000000    7.685674

outcell: Cell vector modules (Ang)   :    9.596870    9.603682    7.685674
outcell: Cell angles (23,13,12) (deg):     90.0000     90.0000     90.0000
outcell: Cell volume (Ang**3)        :    708.3524
Gamma-point calculation with multiply-connected orbital pairs
Folding of H and S implicitly performed
<dSpData1D:S at geom step 1
  <sparsity:sparsity for geom step 1
    nrows_g=12 nrows=12 sparsity=1.0000 nnzs=144, refcount: 7>
  <dData1D:(new from dSpData1D) n=144, refcount: 1>
refcount: 1>
new_DM -- step:     1
Initializing Density Matrix...
DM filled with atomic data:
<dSpData2D:DM initialized from atoms
  <sparsity:sparsity for geom step 1
    nrows_g=12 nrows=12 sparsity=1.0000 nnzs=144, refcount: 8>
  <dData2D:DM n=144 m=1, refcount: 1>
refcount: 1>
No. of atoms with KB's overlaping orbs in proc 0. Max # of overlaps:       6      11

InitMesh: MESH = 60 x 60 x 48 = 172800
InitMesh: Mesh cutoff (required, used) =   100.000   107.800 Ry
New grid distribution [1]: sub = 2

stepf: Fermi-Dirac step function

siesta: Program's energy decomposition (eV):
siesta: Ebs     =      -142.789941
siesta: Eions   =      1621.026762
siesta: Ena     =       347.346256
siesta: Ekin    =       744.871452
siesta: Enl     =      -134.325250
siesta: Eso     =         0.000000
siesta: Edftu   =         0.000000
siesta: DEna    =       -37.211953
siesta: DUscf   =         7.769037
siesta: DUext   =         0.000000
siesta: Ex      =      -205.025360
siesta: Ec      =       -25.318912
siesta: Exc     =      -230.344272
siesta: EbV     =         0.000000
siesta: eta*DQ  =         0.000000
siesta: Emadel  =         0.000000
siesta: Emeta   =         0.000000
siesta: Emolmec =         0.000000
siesta: Ekinion =         0.000000
siesta: Eharris =      -916.851696
siesta: Etot    =      -922.921492
siesta: FreeEng =      -922.921492

        iscf     Eharris(eV)        E_KS(eV)     FreeEng(eV)     dDmax    Ef(eV) dHmax(eV)
   scf:    1     -916.851696     -922.921492     -922.921492  0.680254 -4.369350  7.409421
timer: Routine,Calls,Time,% = IterSCF        1       0.012  10.58
   scf:    2     -926.426181     -924.879777     -924.879777  0.151661 -3.531491  3.560261
   scf:    3     -925.622468     -925.419032     -925.419032  0.130015 -2.848997  0.713003
   scf:    4     -925.440466     -925.430218     -925.430218  0.009501 -2.918535  0.521595
   scf:    5     -925.446344     -925.438925     -925.438925  0.019540 -3.013171  0.171597
   scf:    6     -925.440431     -925.439719     -925.439719  0.006403 -3.023400  0.091154
   scf:    7     -925.439872     -925.439815     -925.439815  0.003140 -3.022564  0.028411
   scf:    8     -925.439827     -925.439822     -925.439822  0.000236 -3.019337  0.014102
   scf:    9     -925.439834     -925.439828     -925.439828  0.000305 -3.015354  0.009572
   scf:   10     -925.439833     -925.439831     -925.439831  0.000264 -3.013970  0.005714
   scf:   11     -925.439833     -925.439832     -925.439832  0.000274 -3.012853  0.003205
   scf:   12     -925.439832     -925.439832     -925.439832  0.000056 -3.012776  0.002474
   scf:   13     -925.439832     -925.439832     -925.439832  0.000049 -3.012780  0.001308
   scf:   14     -925.439832     -925.439832     -925.439832  0.000006 -3.012858  0.000753

SCF Convergence by DM+H criterion
max |DM_out - DM_in|         :     0.0000058600
max |H_out - H_in|      (eV) :     0.0007527327
SCF cycle converged after 14 iterations

Using DM_out to compute the final energy and forces
No. of atoms with KB's overlaping orbs in proc 0. Max # of overlaps:       6      11

siesta: E_KS(eV) =             -925.4398

siesta: E_KS - E_eggbox =      -925.4398

siesta: Atomic forces (eV/Ang):
     1    0.090585   -1.678735    0.159978
     2    2.246432    0.991683    0.215099
     3   -2.305119    0.793488    0.063020
     4    0.519126    1.558507   -0.273758
     5    1.704186   -0.673349   -0.515442
     6   -2.244008   -0.998770    0.319441
----------------------------------------
   Tot    0.011203   -0.007176   -0.031661
----------------------------------------
   Max    2.305119
   Res    1.233944    sqrt( Sum f_i^2 / 3N )
----------------------------------------
   Max    2.305119    constrained

Stress tensor Voigt[x,y,z,yz,xz,xy] (kbar):      -17.47       -6.25        0.01       -0.70        0.96       -0.70
(Free)E + p*V (eV/cell)     -921.9451
Target enthalpy (eV/cell)     -881.2280

siesta: Stress tensor (static) (eV/Ang**3):
        -0.008983   -0.000517    0.000729
        -0.000517   -0.003475   -0.000491
         0.000729   -0.000491    0.000036

siesta: Pressure (static):          6.63398462  kBar

siesta: Stress tensor (total) (eV/Ang**3):
        -0.010907   -0.000436    0.000599
        -0.000436   -0.003901   -0.000438
         0.000599   -0.000438    0.000007

siesta: Pressure (total):          7.90442608  kBar
 Anneal: Kinetic Energy=    4.4157924410936959E-002
 Anneal: Velocity scale factor =   0.99288348363907863     
 Anneal: Cell scale factor =   0.99599234172332518     

siesta: Temp_ion =     916.414 K

                     ====================================
                        Begin MD step =      2
                     ====================================

outcoor: Atomic coordinates (Ang):                          
    0.02360299   -0.04949783   -0.00724056   1       1  O
    0.70890990    0.67959809    0.03132242   2       2  H
   -0.72212982    0.61677034   -0.02527979   2       3  H
   -0.01726112    0.04977787    2.87926893   1       4  O
    0.65978731   -0.67318787    2.71704182   2       5  H
   -0.74628322   -0.62534442    3.02420778   2       6  H

outcell: Unit cell vectors (Ang):
        9.564736    0.000000    0.000000
        0.000000    9.567557    0.000000
        0.000000    0.000000    7.654872

outcell: Cell vector modules (Ang)   :    9.564736    9.567557    7.654872
outcell: Cell angles (23,13,12) (deg):     90.0000     90.0000     90.0000
outcell: Cell volume (Ang**3)        :    700.5062
Gamma-point calculation with multiply-connected orbital pairs
Folding of H and S implicitly performed
<dSpData1D:S at geom step 2
  <sparsity:sparsity for geom step 2
    nrows_g=12 nrows=12 sparsity=1.0000 nnzs=144, refcount: 7>
  <dData1D:(new from dSpData1D) n=144, refcount: 1>
refcount: 1>
new_DM -- step:     2
Re-using DM from previous geometries...
Number of DMs in history: 1
 DM extrapolation coefficients: 
1   1.00000
New DM after history re-use:
<dSpData2D:SpM extrapolated using coords
  <sparsity:sparsity for geom step 2
    nrows_g=12 nrows=12 sparsity=1.0000 nnzs=144, refcount: 9>
  <dData2D:(temp array for extrapolation) n=144 m=1, refcount: 1>
refcount: 1>
No. of atoms with KB's overlaping orbs in proc 0. Max # of overlaps:       6      11

InitMesh: MESH = 60 x 60 x 48 = 172800
InitMesh: Mesh cutoff (required, used) =   100.000   108.670 Ry
New grid distribution [1]: sub = 2

        iscf     Eharris(eV)        E_KS(eV)     FreeEng(eV)     dDmax    Ef(eV) dHmax(eV)
   scf:    1     -924.023161     -924.876047     -924.876047  0.072297 -2.703831  0.689907
   scf:    2     -924.753069     -924.858078     -924.858078  0.064165 -2.344310  0.958625
   scf:    3     -924.926989     -924.906709     -924.906709  0.036760 -2.559684  0.060519
   scf:    4     -924.906867     -924.906790     -924.906790  0.001169 -2.565736  0.043269
   scf:    5     -924.906929     -924.906868     -924.906868  0.002965 -2.582537  0.004835
   scf:    6     -924.906869     -924.906868     -924.906868  0.000097 -2.583381  0.002390
   scf:    7     -924.906869     -924.906869     -924.906869  0.000102 -2.584121  0.000540
   scf:    8     -924.906869     -924.906869     -924.906869  0.000018 -2.584143  0.000381

SCF Convergence by DM+H criterion
max |DM_out - DM_in|         :     0.0000184875
max |H_out - H_in|      (eV) :     0.0003810200
SCF cycle converged after 8 iterations

Using DM_out to compute the final energy and forces
No. of atoms with KB's overlaping orbs in proc 0. Max # of overlaps:       6      11

siesta: E_KS(eV) =             -924.9069

siesta: Atomic forces (eV/Ang):
     1    0.272882   -3.919984    0.113729
     2    3.767719    2.164846    0.321741
     3   -4.007421    1.872418    0.023732
     4    0.158501    3.722871   -0.130769
     5    3.562833   -2.031919   -1.026177
     6   -3.737502   -1.807470    0.676493
----------------------------------------
   Tot    0.017012    0.000762   -0.021252
----------------------------------------
   Max    4.007421
   Res    2.397642    sqrt( Sum f_i^2 / 3N )
----------------------------------------
   Max    4.007421    constrained

Stress tensor Voigt[x,y,z,yz,xz,xy] (kbar):      -26.55      -13.11       -0.14       -1.06        2.03        0.14
(Free)E + p*V (eV/cell)     -919.1065
Target enthalpy (eV/cell)     -881.1847

siesta: Stress tensor (static) (eV/Ang**3):
        -0.015292   -0.000035    0.001408
        -0.000035   -0.007828   -0.000731
         0.001408   -0.000731   -0.000042

siesta: Pressure (static):         12.36965126  kBar

siesta: Stress tensor (total) (eV/Ang**3):
        -0.016571    0.000085    0.001267
         0.000085   -0.008186   -0.000664
         0.001267   -0.000663   -0.000085

siesta: Pressure (total):         13.26651877  kBar
 Anneal: Kinetic Energy=    1.1089720886067356E-002
 Anneal: Velocity scale factor =    1.0309231794984941     
 Anneal: Cell scale factor =   0.99600135919738109     

siesta: Temp_ion =     248.119 K

                     ====================================
                        Begin MD step =      3
                     ====================================

outcoor: Atomic coordinates (Ang):                          
    0.02597499   -0.05211608   -0.00738145   1       1  O
    0.71334002    0.67661919    0.04212939   2       2  H
   -0.72835202    0.60526717   -0.02149074   2       3  H
   -0.01819772    0.05325998    2.86781023   1       4  O
    0.64009023   -0.67026661    2.67893453   2       5  H
   -0.74711624   -0.62772241    3.02723348   2       6  H

outcell: Unit cell vectors (Ang):
        9.535960    0.000000    0.000000
        0.000000    9.534090    0.000000
        0.000000    0.000000    7.624263

outcell: Cell vector modules (Ang)   :    9.535960    9.534090    7.624263
outcell: Cell angles (23,13,12) (deg):     90.0000     90.0000     90.0000
outcell: Cell volume (Ang**3)        :    693.1729
Gamma-point calculation with multiply-connected orbital pairs
Folding of H and S implicitly performed
<dSpData1D:S at geom step 3
  <sparsity:sparsity for geom step 3
    nrows_g=12 nrows=12 sparsity=1.0000 nnzs=144, refcount: 7>
  <dData1D:(new from dSpData1D) n=144, refcount: 1>
refcount: 1>
new_DM -- step:     3
Re-using DM from previous geometries...
Number of DMs in history: 1
 DM extrapolation coefficients: 
1   1.00000
New DM after history re-use:
<dSpData2D:SpM extrapolated using coords
  <sparsity:sparsity for geom step 3
    nrows_g=12 nrows=12 sparsity=1.0000 nnzs=144, refcount: 9>
  <dData2D:(temp array for extrapolation) n=144 m=1, refcount: 1>
refcount: 1>
No. of atoms with KB's overlaping orbs in proc 0. Max # of overlaps:       6      11

InitMesh: MESH = 60 x 60 x 48 = 172800
InitMesh: Mesh cutoff (required, used) =   100.000   109.415 Ry
New grid distribution [1]: sub = 2

        iscf     Eharris(eV)        E_KS(eV)     FreeEng(eV)     dDmax    Ef(eV) dHmax(eV)
   scf:    1     -924.915502     -924.916781     -924.916781  0.032728 -2.570971  0.075356
   scf:    2     -924.917221     -924.917076     -924.917076  0.005722 -2.576992  0.022748
   scf:    3     -924.917148     -924.917116     -924.917116  0.001395 -2.576493  0.005903
   scf:    4     -924.917119     -924.917118     -924.917118  0.000138 -2.576657  0.003903
   scf:    5     -924.917120     -924.917119     -924.917119  0.000266 -2.576954  0.001304
   scf:    6     -924.917119     -924.917119     -924.917119  0.000031 -2.576967  0.000912

SCF Convergence by DM+H criterion
max |DM_out - DM_in|         :     0.0000307368
max |H_out - H_in|      (eV) :     0.0009116897
SCF cycle converged after 6 iterations

Using DM_out to compute the final energy and forces
No. of atoms with KB's overlaping orbs in proc 0. Max # of overlaps:       6      11

siesta: E_KS(eV) =             -924.9171

siesta: Atomic forces (eV/Ang):
     1    0.350710   -3.887061    0.074281
     2    3.598580    2.131184    0.354366
     3   -3.908618    1.855470    0.037291
     4   -0.356024    3.797462    0.066237
     5    3.882412   -2.334025   -1.279275
     6   -3.542277   -1.554191    0.736944
----------------------------------------
   Tot    0.024783    0.008838   -0.010155
----------------------------------------
   Max    3.908618
   Res    2.401296    sqrt( Sum f_i^2 / 3N )
----------------------------------------
   Max    3.908618    constrained

Stress tensor Voigt[x,y,z,yz,xz,xy] (kbar):      -24.82      -12.81       -0.36       -1.50        2.49        0.90
(Free)E + p*V (eV/cell)     -919.4378
Target enthalpy (eV/cell)     -881.6527

siesta: Stress tensor (static) (eV/Ang**3):
        -0.015242    0.000496    0.001679
         0.000496   -0.007896   -0.000983
         0.001679   -0.000983   -0.000116

siesta: Pressure (static):         12.41916953  kBar

siesta: Stress tensor (total) (eV/Ang**3):
        -0.015494    0.000563    0.001555
         0.000563   -0.007998   -0.000934
         0.001555   -0.000935   -0.000222

siesta: Pressure (total):         12.66461854  kBar
 Anneal: Kinetic Energy=    1.6986002418735161E-002
 Anneal: Velocity scale factor =    1.0134678856945214     
 Anneal: Cell scale factor =   0.99601566567644195     

siesta: Temp_ion =     367.280 K

                     ====================================
                        Begin MD step =      4
                     ====================================

outcoor: Atomic coordinates (Ang):                          
    0.02861178   -0.05715821   -0.00748055   1       1  O
    0.75271675    0.69424388    0.05656746   2       2  H
   -0.77255768    0.61152737   -0.01727257   2       3  H
   -0.01937199    0.05912857    2.85647994   1       4  O
    0.65757873   -0.68991038    2.62803498   2       5  H
   -0.78227902   -0.64522775    3.03775628   2       6  H

outcell: Unit cell vectors (Ang):
        9.507260    0.000000    0.000000
        0.000000    9.500811    0.000000
        0.000000    0.000000    7.593886

outcell: Cell vector modules (Ang)   :    9.507260    9.500811    7.593886
outcell: Cell angles (23,13,12) (deg):     90.0000     90.0000     90.0000
outcell: Cell volume (Ang**3)        :    685.9305
Gamma-point calculation with multiply-connected orbital pairs
Folding of H and S implicitly performed
<dSpData1D:S at geom step 4
  <sparsity:sparsity for geom step 4
    nrows_g=12 nrows=12 sparsity=1.0000 nnzs=144, refcount: 7>
  <dData1D:(new from dSpData1D) n=144, refcount: 1>
refcount: 1>
new_DM -- step:     4
Re-using DM from previous geometries...
Number of DMs in history: 1
 DM extrapolation coefficients: 
1   1.00000
New DM after history re-use:
<dSpData2D:SpM extrapolated using coords
  <sparsity:sparsity for geom step 4
    nrows_g=12 nrows=12 sparsity=1.0000 nnzs=144, refcount: 9>
  <dData2D:(temp array for extrapolation) n=144 m=1, refcount: 1>
refcount: 1>
No. of atoms with KB's overlaping orbs in proc 0. Max # of overlaps:       6      11

InitMesh: MESH = 60 x 60 x 48 = 172800
InitMesh: Mesh cutoff (required, used) =   100.000   110.076 Ry
New grid distribution [1]: sub = 2

        iscf     Eharris(eV)        E_KS(eV)     FreeEng(eV)     dDmax    Ef(eV) dHmax(eV)
   scf:    1     -926.092419     -925.441288     -925.441288  0.073077 -2.874973  0.769885
   scf:    2     -925.250861     -925.407588     -925.407588  0.076671 -3.272407  1.134230
   scf:    3     -925.508287     -925.478988     -925.478988  0.044177 -3.031450  0.057906
   scf:    4     -925.479128     -925.479059     -925.479059  0.001004 -3.024244  0.042314
   scf:    5     -925.479211     -925.479140     -925.479140  0.002395 -3.009943  0.006098
   scf:    6     -925.479146     -925.479143     -925.479143  0.000345 -3.008855  0.002048
   scf:    7     -925.479144     -925.479143     -925.479143  0.000128 -3.008527  0.000499
   scf:    8     -925.479143     -925.479143     -925.479143  0.000011 -3.008551  0.000363

SCF Convergence by DM+H criterion
max |DM_out - DM_in|         :     0.0000107293
max |H_out - H_in|      (eV) :     0.0003631407
SCF cycle converged after 8 iterations

Using DM_out to compute the final energy and forces
No. of atoms with KB's overlaping orbs in proc 0. Max # of overlaps:       6      11

siesta: E_KS(eV) =             -925.4791

siesta: Atomic forces (eV/Ang):
     1    0.230328   -1.673915    0.107606
     2    1.840234    0.938179    0.257856
     3   -2.015361    0.784664    0.090447
     4   -0.487338    1.584181    0.087674
     5    2.319685   -1.163305   -0.960461
     6   -1.854264   -0.453142    0.416673
----------------------------------------
   Tot    0.033284    0.016662   -0.000206
----------------------------------------
   Max    2.319685
   Res    1.204484    sqrt( Sum f_i^2 / 3N )
----------------------------------------
   Max    2.319685    constrained

Stress tensor Voigt[x,y,z,yz,xz,xy] (kbar):      -14.33       -5.75       -0.46       -1.59        2.05        0.87
(Free)E + p*V (eV/cell)     -922.5478
Target enthalpy (eV/cell)     -882.6667

siesta: Stress tensor (static) (eV/Ang**3):
        -0.008658    0.000580    0.001245
         0.000580   -0.003440   -0.000954
         0.001245   -0.000954   -0.000036

siesta: Pressure (static):          6.47989058  kBar

siesta: Stress tensor (total) (eV/Ang**3):
        -0.008941    0.000544    0.001278
         0.000544   -0.003590   -0.000995
         0.001278   -0.000995   -0.000290

siesta: Pressure (total):          6.84695942  kBar
 Anneal: Kinetic Energy=    5.7464661535347454E-002
 Anneal: Velocity scale factor =   0.98986826746971157     
 Anneal: Cell scale factor =   0.99602189577527100     

siesta: Temp_ion =    1185.338 K

                     ====================================
                        Begin MD step =      5
                     ====================================

outcoor: Atomic coordinates (Ang):                          
    0.03130352   -0.06303797   -0.00751221   1       1  O
    0.80810609    0.71999989    0.07302891   2       2  H
   -0.83429324    0.62480951   -0.01231759   2       3  H
   -0.02079682    0.06575813    2.84526239   1       4  O
    0.69622799   -0.71975681    2.56926235   2       5  H
   -0.83368594   -0.66630633    3.05164268   2       6  H

outcell: Unit cell vectors (Ang):
        9.475261    0.000000    0.000000
        0.000000    9.465123    0.000000
        0.000000    0.000000    7.563676

outcell: Cell vector modules (Ang)   :    9.475261    9.465123    7.563676
outcell: Cell angles (23,13,12) (deg):     90.0000     90.0000     90.0000
outcell: Cell volume (Ang**3)        :    678.3446
Gamma-point calculation with multiply-connected orbital pairs
Folding of H and S implicitly performed
<dSpData1D:S at geom step 5
  <sparsity:sparsity for geom step 5
    nrows_g=12 nrows=12 sparsity=1.0000 nnzs=144, refcount: 7>
  <dData1D:(new from dSpData1D) n=144, refcount: 1>
refcount: 1>
new_DM -- step:     5
Re-using DM from previous geometries...
Number of DMs in history: 1
 DM extrapolation coefficients: 
1   1.00000
New DM after history re-use:
<dSpData2D:SpM extrapolated using coords
  <sparsity:sparsity for geom step 5
    nrows_g=12 nrows=12 sparsity=1.0000 nnzs=144, refcount: 9>
  <dData2D:(temp array for extrapolation) n=144 m=1, refcount: 1>
refcount: 1>
No. of atoms with KB's overlaping orbs in proc 0. Max # of overlaps:       6      11

InitMesh: MESH = 60 x 60 x 48 = 172800
InitMesh: Mesh cutoff (required, used) =   100.000   110.821 Ry
New grid distribution [1]: sub = 2

        iscf     Eharris(eV)        E_KS(eV)     FreeEng(eV)     dDmax    Ef(eV) dHmax(eV)
   scf:    1     -926.406621     -925.650250     -925.650250  0.104067 -3.401917  1.198709
   scf:    2     -924.957102     -925.503760     -925.503760  0.130119 -4.022370  2.087875
   scf:    3     -925.843470     -925.748983     -925.748983  0.078230 -3.626466  0.091787
   scf:    4     -925.749351     -925.749174     -925.749174  0.001387 -3.613486  0.067727
   scf:    5     -925.749546     -925.749369     -925.749369  0.002940 -3.595529  0.020598
   scf:    6     -925.749415     -925.749394     -925.749394  0.001139 -3.590793  0.003471
   scf:    7     -925.749397     -925.749396     -925.749396  0.000257 -3.590032  0.000917
   scf:    8     -925.749396     -925.749396     -925.749396  0.000034 -3.590043  0.000492

SCF Convergence by DM+H criterion
max |DM_out - DM_in|         :     0.0000343352
max |H_out - H_in|      (eV) :     0.0004918818
SCF cycle converged after 8 iterations

Using DM_out to compute the final energy and forces
No. of atoms with KB's overlaping orbs in proc 0. Max # of overlaps:       6      11

siesta: E_KS(eV) =             -925.7494

siesta: Atomic forces (eV/Ang):
     1    0.061968    0.553546    0.192192
     2   -0.018342   -0.282616    0.106788
     3    0.029588   -0.282960    0.135267
     4   -0.336012   -0.800239   -0.052831
     5    0.391197    0.273929   -0.367761
     6   -0.086690    0.560165   -0.009120
----------------------------------------
   Tot    0.041709    0.021825    0.004534
----------------------------------------
   Max    0.800239
   Res    0.331564    sqrt( Sum f_i^2 / 3N )
----------------------------------------
   Max    0.800239    constrained

Stress tensor Voigt[x,y,z,yz,xz,xy] (kbar):       -2.89        1.85       -0.36       -1.33        1.16        0.49
(Free)E + p*V (eV/cell)     -925.5509
Target enthalpy (eV/cell)     -883.4105

siesta: Stress tensor (static) (eV/Ang**3):
        -0.000469    0.000356    0.000428
         0.000355    0.001630   -0.000659
         0.000429   -0.000658    0.000204

siesta: Pressure (static):         -0.72889110  kBar

siesta: Stress tensor (total) (eV/Ang**3):
        -0.001803    0.000307    0.000724
         0.000306    0.001153   -0.000833
         0.000724   -0.000832   -0.000228

siesta: Pressure (total):          0.46879078  kBar
 Anneal: Kinetic Energy=    7.4922884238914467E-002
 Anneal: Velocity scale factor =   0.98753042540517189     
 Anneal: Cell scale factor =   0.99601263363721348     

siesta: Temp_ion =    1538.162 K

                     ====================================
                        Begin MD step =      6
                     ====================================

outcoor: Atomic coordinates (Ang):                          
    0.03392753   -0.06837080   -0.00742789   1       1  O
    0.86107617    0.74194654    0.08994857   2       2  H
   -0.89328535    0.63472624   -0.00624953   2       3  H
   -0.02236319    0.07166886    2.83402758   1       4  O
    0.73691532   -0.74574256    2.50863015   2       5  H
   -0.88377486   -0.68113814    3.06461104   2       6  H

outcell: Unit cell vectors (Ang):
        9.438707    0.000000    0.000000
        0.000000    9.426521    0.000000
        0.000000    0.000000    7.533517

outcell: Cell vector modules (Ang)   :    9.438707    9.426521    7.533517
outcell: Cell angles (23,13,12) (deg):     90.0000     90.0000     90.0000
outcell: Cell volume (Ang**3)        :    670.2884
Gamma-point calculation with multiply-connected orbital pairs
Folding of H and S implicitly performed
<dSpData1D:S at geom step 6
  <sparsity:sparsity for geom step 6
    nrows_g=12 nrows=12 sparsity=1.0000 nnzs=144, refcount: 7>
  <dData1D:(new from dSpData1D) n=144, refcount: 1>
refcount: 1>
new_DM -- step:     6
Re-using DM from previous geometries...
Number of DMs in history: 1
 DM extrapolation coefficients: 
1   1.00000
New DM after history re-use:
<dSpData2D:SpM extrapolated using coords
  <sparsity:sparsity for geom step 6
    nrows_g=12 nrows=12 sparsity=1.0000 nnzs=144, refcount: 9>
  <dData2D:(temp array for extrapolation) n=144 m=1, refcount: 1>
refcount: 1>
Note: For starting DM, Qtot, Tr[D*S] =         16.00000000         15.97730822
No. of atoms with KB's overlaping orbs in proc 0. Max # of overlaps:       6      11

InitMesh: MESH = 60 x 60 x 48 = 172800
InitMesh: Mesh cutoff (required, used) =   100.000   111.681 Ry
New grid distribution [1]: sub = 2

        iscf     Eharris(eV)        E_KS(eV)     FreeEng(eV)     dDmax    Ef(eV) dHmax(eV)
   scf:    1     -926.055010     -925.457145     -925.457145  0.092958 -0.766124  1.209918
   scf:    2     -924.483572     -925.228743     -925.228743  0.144932 -4.533700  2.390226
   scf:    3     -925.680067     -925.560805     -925.560805  0.091391 -4.119065  0.096605
   scf:    4     -925.561281     -925.561058     -925.561058  0.001338 -4.105707  0.071098
   scf:    5     -925.561491     -925.561285     -925.561285  0.002730 -4.089938  0.024748
   scf:    6     -925.561348     -925.561320     -925.561320  0.001348 -4.084135  0.003204
   scf:    7     -925.561321     -925.561321     -925.561321  0.000206 -4.083482  0.000983
   scf:    8     -925.561321     -925.561321     -925.561321  0.000038 -4.083439  0.000572

SCF Convergence by DM+H criterion
max |DM_out - DM_in|         :     0.0000377287
max |H_out - H_in|      (eV) :     0.0005720652
SCF cycle converged after 8 iterations

Using DM_out to compute the final energy and forces
No. of atoms with KB's overlaping orbs in proc 0. Max # of overlaps:       6      11

siesta: E_KS(eV) =             -925.5613

siesta: Atomic forces (eV/Ang):
     1   -0.049934    1.888519    0.274139
     2   -1.269386   -1.038791   -0.023072
     3    1.412671   -0.913639    0.158375
     4   -0.182316   -2.283165   -0.206509
     5   -0.972512    1.221515    0.146183
     6    1.111142    1.148857   -0.344041
----------------------------------------
   Tot    0.049665    0.023296    0.005074
----------------------------------------
   Max    2.283165
   Res    1.043802    sqrt( Sum f_i^2 / 3N )
----------------------------------------
   Max    2.283165    constrained

Stress tensor Voigt[x,y,z,yz,xz,xy] (kbar):        6.67        7.28       -0.04       -0.88        0.13        0.19
(Free)E + p*V (eV/cell)     -927.5006
Target enthalpy (eV/cell)     -883.7252

siesta: Stress tensor (static) (eV/Ang**3):
         0.006036    0.000124   -0.000360
         0.000124    0.005083   -0.000309
        -0.000360   -0.000309    0.000503

siesta: Pressure (static):         -6.20711814  kBar

siesta: Stress tensor (total) (eV/Ang**3):
         0.004163    0.000121    0.000080
         0.000121    0.004543   -0.000547
         0.000080   -0.000547   -0.000026

siesta: Pressure (total):         -4.63537874  kBar
 Anneal: Kinetic Energy=    5.7280203223129399E-002
 Anneal: Velocity scale factor =   0.98990053777494835     
 Anneal: Cell scale factor =   0.99599253882496441     

siesta: Temp_ion =    1181.610 K

                     ====================================
                        Begin MD step =      7
                     ====================================

outcoor: Atomic coordinates (Ang):                          
    0.03642963   -0.07240658   -0.00718208   1       1  O
    0.90011338    0.75321959    0.10616601   2       2  H
   -0.93680571    0.63552793    0.00114387   2       3  H
   -0.02398174    0.07603043    2.82265517   1       4  O
    0.76688367   -0.75921482    2.45078451   2       5  H
   -0.92149282   -0.68448051    3.07361285   2       6  H

outcell: Unit cell vectors (Ang):
        9.398094    0.000000    0.000000
        0.000000    9.385842    0.000000
        0.000000    0.000000    7.503327

outcell: Cell vector modules (Ang)   :    9.398094    9.385842    7.503327
outcell: Cell angles (23,13,12) (deg):     90.0000     90.0000     90.0000
outcell: Cell volume (Ang**3)        :    661.8611
Gamma-point calculation with multiply-connected orbital pairs
Folding of H and S implicitly performed
<dSpData1D:S at geom step 7
  <sparsity:sparsity for geom step 7
    nrows_g=12 nrows=12 sparsity=1.0000 nnzs=144, refcount: 7>
  <dData1D:(new from dSpData1D) n=144, refcount: 1>
refcount: 1>
new_DM -- step:     7
Re-using DM from previous geometries...
Number of DMs in history: 1
 DM extrapolation coefficients: 
1   1.00000
New DM after history re-use:
<dSpData2D:SpM extrapolated using coords
  <sparsity:sparsity for geom step 7
    nrows_g=12 nrows=12 sparsity=1.0000 nnzs=144, refcount: 9>
  <dData2D:(temp array for extrapolation) n=144 m=1, refcount: 1>
refcount: 1>
Note: For starting DM, Qtot, Tr[D*S] =         16.00000000         15.97874404
No. of atoms with KB's overlaping orbs in proc 0. Max # of overlaps:       6      11

InitMesh: MESH = 60 x 60 x 48 = 172800
InitMesh: Mesh cutoff (required, used) =   100.000   112.648 Ry
New grid distribution [1]: sub = 2

        iscf     Eharris(eV)        E_KS(eV)     FreeEng(eV)     dDmax    Ef(eV) dHmax(eV)
   scf:    1     -925.600560     -925.190671     -925.190671  0.055618 -1.239410  0.848287
   scf:    2     -924.598759     -925.043992     -925.043992  0.107256 -1.647023  1.809809
   scf:    3     -925.308868     -925.242229     -925.242229  0.070411 -1.369442  0.073968
   scf:    4     -925.242538     -925.242389     -925.242389  0.001045 -1.361947  0.053423
   scf:    5     -925.242668     -925.242538     -925.242538  0.002202 -1.351577  0.013677
   scf:    6     -925.242558     -925.242549     -925.242549  0.000718 -1.349076  0.002062
   scf:    7     -925.242549     -925.242549     -925.242549  0.000096 -1.348789  0.000891

SCF Convergence by DM+H criterion
max |DM_out - DM_in|         :     0.0000964269
max |H_out - H_in|      (eV) :     0.0008908136
SCF cycle converged after 7 iterations

Using DM_out to compute the final energy and forces
No. of atoms with KB's overlaping orbs in proc 0. Max # of overlaps:       6      11

siesta: E_KS(eV) =             -925.2425

siesta: Atomic forces (eV/Ang):
     1   -0.100599    2.458234    0.330020
     2   -1.942580   -1.383037   -0.110625
     3    2.155596   -1.176728    0.168049
     4   -0.081500   -2.931627   -0.314515
     5   -1.736215    1.674646    0.486645
     6    1.759960    1.381546   -0.555635
----------------------------------------
   Tot    0.054662    0.023034    0.003938
----------------------------------------
   Max    2.931627
   Res    1.452788    sqrt( Sum f_i^2 / 3N )
----------------------------------------
   Max    2.931627    constrained

Stress tensor Voigt[x,y,z,yz,xz,xy] (kbar):       13.92       10.34        0.44       -0.35       -0.88       -0.03
(Free)E + p*V (eV/cell)     -928.6449
Target enthalpy (eV/cell)     -883.9324

siesta: Stress tensor (static) (eV/Ang**3):
         0.010151   -0.000037   -0.000944
        -0.000038    0.006766   -0.000029
        -0.000944   -0.000029    0.000793

siesta: Pressure (static):         -9.45816148  kBar

siesta: Stress tensor (total) (eV/Ang**3):
         0.008688   -0.000016   -0.000551
        -0.000017    0.006457   -0.000222
        -0.000550   -0.000221    0.000278

siesta: Pressure (total):         -8.23616011  kBar
 Anneal: Kinetic Energy=    2.9459804666018889E-002
 Anneal: Velocity scale factor =   0.99934907059604594     
 Anneal: Cell scale factor =   0.99596865183339922     

siesta: Temp_ion =     619.371 K

                     ====================================
                        Begin MD step =      8
                     ====================================

outcoor: Atomic coordinates (Ang):                          
    0.03883351   -0.07491630   -0.00674014   1       1  O
    0.91995046    0.75109780    0.12117365   2       2  H
   -0.95903952    0.62502180    0.01006940   2       3  H
   -0.02562453    0.07857811    2.81107220   1       4  O
    0.77975451   -0.75649223    2.39800312   2       5  H
   -0.94175564   -0.67453186    3.07709815   2       6  H

outcell: Unit cell vectors (Ang):
        9.354701    0.000000    0.000000
        0.000000    9.344190    0.000000
        0.000000    0.000000    7.473078

outcell: Cell vector modules (Ang)   :    9.354701    9.344190    7.473078
outcell: Cell angles (23,13,12) (deg):     90.0000     90.0000     90.0000
outcell: Cell volume (Ang**3)        :    653.2375
Gamma-point calculation with multiply-connected orbital pairs
Folding of H and S implicitly performed
<dSpData1D:S at geom step 8
  <sparsity:sparsity for geom step 8
    nrows_g=12 nrows=12 sparsity=1.0000 nnzs=144, refcount: 7>
  <dData1D:(new from dSpData1D) n=144, refcount: 1>
refcount: 1>
new_DM -- step:     8
Re-using DM from previous geometries...
Number of DMs in history: 1
 DM extrapolation coefficients: 
1   1.00000
New DM after history re-use:
<dSpData2D:SpM extrapolated using coords
  <sparsity:sparsity for geom step 8
    nrows_g=12 nrows=12 sparsity=1.0000 nnzs=144, refcount: 9>
  <dData2D:(temp array for extrapolation) n=144 m=1, refcount: 1>
refcount: 1>
No. of atoms with KB's overlaping orbs in proc 0. Max # of overlaps:       6      12

InitMesh: MESH = 60 x 60 x 48 = 172800
InitMesh: Mesh cutoff (required, used) =   100.000   113.696 Ry
New grid distribution [1]: sub = 2

        iscf     Eharris(eV)        E_KS(eV)     FreeEng(eV)     dDmax    Ef(eV) dHmax(eV)
   scf:    1     -925.247356     -925.068993     -925.068993  0.024727 -1.450443  0.287546
   scf:    2     -925.005171     -925.053072     -925.053072  0.035004 -1.577648  0.605649
   scf:    3     -925.081330     -925.074493     -925.074493  0.023295 -1.490224  0.032061
   scf:    4     -925.074594     -925.074544     -925.074544  0.000855 -1.488035  0.022518
   scf:    5     -925.074628     -925.074591     -925.074591  0.001883 -1.483485  0.002604
   scf:    6     -925.074592     -925.074591     -925.074591  0.000107 -1.483327  0.001433
   scf:    7     -925.074591     -925.074591     -925.074591  0.000064 -1.483214  0.000507

SCF Convergence by DM+H criterion
max |DM_out - DM_in|         :     0.0000638536
max |H_out - H_in|      (eV) :     0.0005069440
SCF cycle converged after 7 iterations

Using DM_out to compute the final energy and forces
No. of atoms with KB's overlaping orbs in proc 0. Max # of overlaps:       6      12

siesta: E_KS(eV) =             -925.0746

siesta: Atomic forces (eV/Ang):
     1   -0.109682    2.517793    0.354385
     2   -2.209861   -1.444429   -0.158313
     3    2.451658   -1.200996    0.174486
     4    0.002354   -3.014315   -0.377677
     5   -2.090673    1.795859    0.676560
     6    2.014629    1.367905   -0.666983
----------------------------------------
   Tot    0.058426    0.021818    0.002457
----------------------------------------
   Max    3.014315
   Res    1.574317    sqrt( Sum f_i^2 / 3N )
----------------------------------------
   Max    3.014315    constrained

Stress tensor Voigt[x,y,z,yz,xz,xy] (kbar):       18.30       11.17        0.98        0.11       -1.69       -0.23
(Free)E + p*V (eV/cell)     -929.2133
Target enthalpy (eV/cell)     -884.3027

siesta: Stress tensor (static) (eV/Ang**3):
         0.012112   -0.000162   -0.001292
        -0.000163    0.007063    0.000147
        -0.001292    0.000148    0.001047

siesta: Pressure (static):        -10.79976788  kBar

siesta: Stress tensor (total) (eV/Ang**3):
         0.011422   -0.000140   -0.001055
        -0.000141    0.006972    0.000070
        -0.001055    0.000071    0.000613

siesta: Pressure (total):        -10.15097286  kBar
 Anneal: Kinetic Energy=    1.3250268412961404E-002
 Anneal: Velocity scale factor =    1.0227609347773039     
 Anneal: Cell scale factor =   0.99594660322445716     

siesta: Temp_ion =     291.783 K

                     ====================================
                        Begin MD step =      9
                     ====================================

outcoor: Atomic coordinates (Ang):                          
    0.04125690   -0.07598312   -0.00606509   1       1  O
    0.91898869    0.73494364    0.13521179   2       2  H
   -0.95820526    0.60253145    0.02102864   2       3  H
   -0.02732522    0.07937997    2.79923352   1       4  O
    0.77273536   -0.73629126    2.35020705   2       5  H
   -0.94313754   -0.65100050    3.07465379   2       6  H

outcell: Unit cell vectors (Ang):
        9.309994    0.000000    0.000000
        0.000000    9.302549    0.000000
        0.000000    0.000000    7.442787

outcell: Cell vector modules (Ang)   :    9.309994    9.302549    7.442787
outcell: Cell angles (23,13,12) (deg):     90.0000     90.0000     90.0000
outcell: Cell volume (Ang**3)        :    644.5950
Gamma-point calculation with multiply-connected orbital pairs
Folding of H and S implicitly performed
<dSpData1D:S at geom step 9
  <sparsity:sparsity for geom step 9
    nrows_g=12 nrows=12 sparsity=1.0000 nnzs=144, refcount: 7>
  <dData1D:(new from dSpData1D) n=144, refcount: 1>
refcount: 1>
new_DM -- step:     9
Re-using DM from previous geometries...
Number of DMs in history: 1
 DM extrapolation coefficients: 
1   1.00000
New DM after history re-use:
<dSpData2D:SpM extrapolated using coords
  <sparsity:sparsity for geom step 9
    nrows_g=12 nrows=12 sparsity=1.0000 nnzs=144, refcount: 9>
  <dData2D:(temp array for extrapolation) n=144 m=1, refcount: 1>
refcount: 1>
No. of atoms with KB's overlaping orbs in proc 0. Max # of overlaps:       6      12

InitMesh: MESH = 60 x 60 x 48 = 172800
InitMesh: Mesh cutoff (required, used) =   100.000   114.790 Ry
New grid distribution [1]: sub = 2

        iscf     Eharris(eV)        E_KS(eV)     FreeEng(eV)     dDmax    Ef(eV) dHmax(eV)
   scf:    1     -924.980134     -925.157274     -925.157274  0.043023 -1.383572  0.420435
   scf:    2     -925.040477     -925.128066     -925.128066  0.052833 -1.192923  0.855048
   scf:    3     -925.179455     -925.167090     -925.167090  0.035435 -1.326910  0.026196
   scf:    4     -925.167203     -925.167148     -925.167148  0.000941 -1.328720  0.018178
   scf:    5     -925.167236     -925.167198     -925.167198  0.002093 -1.333392  0.003121
   scf:    6     -925.167198     -925.167198     -925.167198  0.000088 -1.333849  0.001298
   scf:    7     -925.167198     -925.167198     -925.167198  0.000073 -1.334121  0.000584

SCF Convergence by DM+H criterion
max |DM_out - DM_in|         :     0.0000728925
max |H_out - H_in|      (eV) :     0.0005836483
SCF cycle converged after 7 iterations

Using DM_out to compute the final energy and forces
No. of atoms with KB's overlaping orbs in proc 0. Max # of overlaps:       6      12

siesta: E_KS(eV) =             -925.1672

siesta: Atomic forces (eV/Ang):
     1   -0.085912    2.173710    0.342065
     2   -2.156502   -1.276976   -0.165148
     3    2.394525   -1.040886    0.182374
     4    0.118257   -2.662523   -0.407355
     5   -2.160428    1.679074    0.736812
     6    1.950962    1.148309   -0.690232
----------------------------------------
   Tot    0.060902    0.020708   -0.001484
----------------------------------------
   Max    2.662523
   Res    1.470226    sqrt( Sum f_i^2 / 3N )
----------------------------------------
   Max    2.662523    constrained

Stress tensor Voigt[x,y,z,yz,xz,xy] (kbar):       19.14        9.79        1.44        0.44       -2.14       -0.44
(Free)E + p*V (eV/cell)     -929.2395
Target enthalpy (eV/cell)     -884.9347

siesta: Stress tensor (static) (eV/Ang**3):
         0.012082   -0.000303   -0.001393
        -0.000304    0.006207    0.000207
        -0.001393    0.000208    0.001244

siesta: Pressure (static):        -10.43183628  kBar

siesta: Stress tensor (total) (eV/Ang**3):
         0.011946   -0.000276   -0.001333
        -0.000276    0.006108    0.000272
        -0.001333    0.000273    0.000899

siesta: Pressure (total):        -10.12203088  kBar
 Anneal: Kinetic Energy=    1.6575885597160559E-002
 Anneal: Velocity scale factor =    1.0142868198139767     
 Anneal: Cell scale factor =   0.99592883113651109     

siesta: Temp_ion =     358.992 K

                     ====================================
                        Begin MD step =     10
                     ====================================

outcoor: Atomic coordinates (Ang):                          
    0.04367806   -0.07576066   -0.00516848   1       1  O
    0.89727428    0.70626360    0.14794809   2       2  H
   -0.93432525    0.56964985    0.03397475   2       3  H
   -0.02898886    0.07859030    2.78713409   1       4  O
    0.74479571   -0.69959900    2.30875878   2       5  H
   -0.92579944   -0.61602797    3.06573527   2       6  H

outcell: Unit cell vectors (Ang):
        9.265484    0.000000    0.000000
        0.000000    9.261774    0.000000
        0.000000    0.000000    7.412486

outcell: Cell vector modules (Ang)   :    9.265484    9.261774    7.412486
outcell: Cell angles (23,13,12) (deg):     90.0000     90.0000     90.0000
outcell: Cell volume (Ang**3)        :    636.1012
Gamma-point calculation with multiply-connected orbital pairs
Folding of H and S implicitly performed
<dSpData1D:S at geom step 10
  <sparsity:sparsity for geom step 10
    nrows_g=12 nrows=12 sparsity=1.0000 nnzs=144, refcount: 7>
  <dData1D:(new from dSpData1D) n=144, refcount: 1>
refcount: 1>
new_DM -- step:    10
Re-using DM from previous geometries...
Number of DMs in history: 1
 DM extrapolation coefficients: 
1   1.00000
New DM after history re-use:
<dSpData2D:SpM extrapolated using coords
  <sparsity:sparsity for geom step 10
    nrows_g=12 nrows=12 sparsity=1.0000 nnzs=144, refcount: 9>
  <dData2D:(temp array for extrapolation) n=144 m=1, refcount: 1>
refcount: 1>
Note: For starting DM, Qtot, Tr[D*S] =         16.00000000         16.02988101
No. of atoms with KB's overlaping orbs in proc 0. Max # of overlaps:       6      12

InitMesh: MESH = 60 x 60 x 48 = 172800
InitMesh: Mesh cutoff (required, used) =   100.000   115.893 Ry
New grid distribution [1]: sub = 2

        iscf     Eharris(eV)        E_KS(eV)     FreeEng(eV)     dDmax    Ef(eV) dHmax(eV)
   scf:    1     -924.764093     -925.421143     -925.421143  0.089339 -4.169885  0.974018
   scf:    2     -924.834433     -925.279827     -925.279827  0.117342 -2.109822  1.899359
   scf:    3     -925.543325     -925.478185     -925.478185  0.077834 -4.011819  0.076856
   scf:    4     -925.478598     -925.478402     -925.478402  0.001656 -4.016623  0.053458
   scf:    5     -925.478716     -925.478574     -925.478574  0.003119 -4.030211  0.012282
   scf:    6     -925.478584     -925.478580     -925.478580  0.000504 -4.034282  0.003888
   scf:    7     -925.478580     -925.478580     -925.478580  0.000105 -4.035245  0.001440
   scf:    8     -925.478580     -925.478580     -925.478580  0.000039 -4.035334  0.001046
   scf:    9     -925.478580     -925.478580     -925.478580  0.000046 -4.035349  0.000436

SCF Convergence by DM+H criterion
max |DM_out - DM_in|         :     0.0000461899
max |H_out - H_in|      (eV) :     0.0004355339
SCF cycle converged after 9 iterations

Using DM_out to compute the final energy and forces
No. of atoms with KB's overlaping orbs in proc 0. Max # of overlaps:       6      12

siesta: E_KS(eV) =             -925.4786

siesta: Atomic forces (eV/Ang):
     1   -0.021378    1.390236    0.270545
     2   -1.736601   -0.854623   -0.113154
     3    1.929426   -0.685556    0.203138
     4    0.305686   -1.867401   -0.394327
     5   -1.942375    1.327366    0.631647
     6    1.529310    0.708737   -0.602054
----------------------------------------
   Tot    0.064068    0.018758   -0.004205
----------------------------------------
   Max    1.942375
   Res    1.127256    sqrt( Sum f_i^2 / 3N )
----------------------------------------
   Max    1.942375    constrained

Stress tensor Voigt[x,y,z,yz,xz,xy] (kbar):       15.56        6.18        1.70        0.49       -2.01       -0.70
(Free)E + p*V (eV/cell)     -928.5807
Target enthalpy (eV/cell)     -885.7763

siesta: Stress tensor (static) (eV/Ang**3):
         0.009790   -0.000495   -0.001164
        -0.000495    0.004235    0.000096
        -0.001164    0.000096    0.001328

siesta: Pressure (static):         -8.19960410  kBar

siesta: Stress tensor (total) (eV/Ang**3):
         0.009713   -0.000437   -0.001254
        -0.000437    0.003855    0.000305
        -0.001254    0.000306    0.001063

siesta: Pressure (total):         -7.81336245  kBar
 Anneal: Kinetic Energy=    3.5452621675706543E-002
 Anneal: Velocity scale factor =   0.99607081187510826     
 Anneal: Cell scale factor =   0.99591917251897133     

siesta: Temp_ion =     740.483 K

siesta: Program's energy decomposition (eV):
siesta: Ebs     =      -183.271868
siesta: Eions   =      1621.026762
siesta: Ena     =       347.994649
siesta: Ekin    =       681.037388
siesta: Enl     =      -112.045376
siesta: Eso     =         0.000000
siesta: Edftu   =         0.000000
siesta: DEna    =        -6.214086
siesta: DUscf   =         3.087869
siesta: DUext   =         0.000000
siesta: Ex      =      -193.583864
siesta: Ec      =       -24.728399
siesta: Exc     =      -218.312263
siesta: EbV     =         0.000000
siesta: eta*DQ  =         0.000000
siesta: Emadel  =         0.000000
siesta: Emeta   =         0.000000
siesta: Emolmec =         0.000000
siesta: Ekinion =         0.478574
siesta: Eharris =      -925.000006
siesta: Etot    =      -925.000006
siesta: FreeEng =      -925.000006

siesta: Final energy (eV):
siesta:  Band Struct. =    -183.271868
siesta:       Kinetic =     681.037388
siesta:       Hartree =     900.303933
siesta:         Edftu =       0.000000
siesta:       Eso     =       0.000000
siesta:    Ext. field =       0.000000
siesta:         Exch. =    -193.583864
siesta:         Corr. =     -24.728399
siesta:     Bulk bias =       0.000000
siesta:   Exch.-corr. =    -218.312263
siesta:  Ion-electron =   -2378.919111
siesta:       Ion-ion =      90.411473
siesta:       Ekinion =       0.478574
siesta: D3 dispersion =       0.000000
siesta:         Total =    -925.000006
siesta:         Fermi =      -4.035349

siesta: Atomic forces (eV/Ang):
siesta:      1   -0.021378    1.390236    0.270545
siesta:      2   -1.736601   -0.854623   -0.113154
siesta:      3    1.929426   -0.685556    0.203138
siesta:      4    0.305686   -1.867401   -0.394327
siesta:      5   -1.942375    1.327366    0.631647
siesta:      6    1.529310    0.708737   -0.602054
siesta: ----------------------------------------
siesta:    Tot    0.064068    0.018758   -0.004205

siesta: Stress tensor (static) (eV/Ang**3):
siesta:     0.009790   -0.000495   -0.001164
siesta:    -0.000495    0.004235    0.000096
siesta:    -0.001164    0.000096    0.001328

siesta: Cell volume =        636.101159 Ang**3

siesta: Pressure (static):
siesta:                Solid            Molecule  Units
siesta:          -0.00005574          0.00000324  Ry/Bohr**3
siesta:          -0.00511779          0.00029760  eV/Ang**3
siesta:          -8.19960410          0.47681093  kBar
(Free)E+ p_basis*V_orbitals  =        -924.828566
(Free)Eharris+ p_basis*V_orbitals  =        -924.828566

siesta: Electric dipole (a.u.)  =   -0.131277    0.021013   -0.000000
siesta: Electric dipole (Debye) =   -0.333674    0.053410   -0.000000

cite: Please see "anneal_pt.bib" for an exhaustive BiBTeX file.
cite: Please clearly indicate Siesta version in published work: 5.0.0-alpha-123-gfb8fd7d02
cite: This calculation has made use of the following articles
cite: which are encouraged to be cited in a published work.
        Primary SIESTA paper
          DOI: www.doi.org/10.1088/0953-8984/14/11/302


timer: Elapsed wall time (sec) =       1.670
timer: CPU execution times (sec):

Routine            Calls   Time/call    Tot.time        %
siesta                 1       1.670       1.670   100.00
Setup                  1       0.054       0.054     3.26
bands                  1       0.000       0.000     0.00
KSV_init               1       0.000       0.000     0.00
IterGeom              10       0.162       1.615    96.73
geom_init             10       0.031       0.312    18.70
state_init            10       0.000       0.005     0.28
hsparse               10       0.000       0.000     0.02
overlap               10       0.000       0.002     0.14
Setup_H0              10       0.018       0.181    10.86
naefs                 20       0.000       0.001     0.04
MolMec                20       0.000       0.000     0.00
kinefsm               20       0.000       0.002     0.14
nlefsm                20       0.001       0.014     0.86
DHSCF_Init            10       0.017       0.166     9.91
DHSCF1                10       0.003       0.026     1.58
INITMESH              10       0.000       0.000     0.00
DHSCF2                10       0.014       0.139     8.33
REMESH                10       0.001       0.006     0.35
REORD                284       0.000       0.031     1.87
PHION                 10       0.005       0.051     3.06
COMM_BSC             438       0.000       0.040     2.39
POISON               112       0.004       0.489    29.26
fft                  224       0.002       0.361    21.62
setup_H               92       0.012       1.129    67.62
DHSCF                102       0.014       1.408    84.31
DHSCF3               102       0.012       1.245    74.53
rhoofd               102       0.001       0.062     3.70
XC                   102       0.005       0.509    30.48
GXC-CellXC           102       0.005       0.463    27.75
gridxc@cellXC        102       0.005       0.463    27.73
vmat                 102       0.001       0.054     3.22
IterSCF               82       0.012       1.011    60.52
compute_dm            82       0.000       0.003     0.20
diagon                82       0.000       0.003     0.19
r-eigvec              82       0.000       0.003     0.15
r-buildHS             82       0.000       0.000     0.00
rdiag                 82       0.000       0.002     0.14
rdiag1                82       0.000       0.000     0.01
rdiag2                82       0.000       0.000     0.02
rdiag3                82       0.000       0.001     0.08
rdiag4                82       0.000       0.000     0.01
r-buildD              82       0.000       0.000     0.02
MIXER                 72       0.000       0.000     0.03
PostSCF               10       0.029       0.289    17.29
DHSCF4                10       0.016       0.163     9.78
dfscf                 10       0.012       0.116     6.96
overfsm               10       0.000       0.000     0.02
state_analysis        10       0.000       0.001     0.06
siesta_move           10       0.000       0.002     0.11
Analysis               1       0.000       0.000     0.01
optical                1       0.000       0.000     0.00
  

>> End of run:  28-SEP-2023  15:37:45
Job completed
