Siesta Version  : 5.0.0-alpha-123-gfb8fd7d02
Architecture    : ----
Compiler version: GNU-11.4.0
Compiler flags  : -fallow-argument-mismatch;-O3 -march=native
PP flags        : ----
Libraries       : ----
Parallelisations: none
GEMM3M support
NetCDF support
NetCDF-4 support
Lua support

Runtime information:
* Directory : /home/fnpedron/Siesta/siesta-dev/Tests/02.SpinPolarization/work/fe_noncol_kp
* Running in serial mode.
>> Start of run:  28-SEP-2023  15:35:22

                           *********************** 
                           *  WELCOME TO SIESTA  * 
                           *********************** 

reinit: Reading from standard input
reinit: Dumping input in INPUT_TMP.16590
************************** Dump of input data file ****************************
%include ../../basejob.fdf
SystemLabel         fe_noncol_kp
Spin non-collinear
%block kgrid_Monkhorst_Pack
   2  0  0  0.5
   0  2  0  0.5
   0  0  2  0.5
%endblock kgrid_Monkhorst_Pack
Diag.ParallelOverK True
************************** End of input data file *****************************

reinit: -----------------------------------------------------------------------
reinit: System Name: Linear Fe3 cluster
reinit: -----------------------------------------------------------------------
reinit: System Label: fe_noncol_kp
reinit: -----------------------------------------------------------------------

initatom: Reading input for the pseudopotentials and atomic orbitals ----------
Species number:   1 Atomic number:   26 Label: Fe_nc


---- Processing specs for species: Fe_nc
Ground state valence configuration:   4s02  3d06
Reading pseudopotential information in formatted form from:
  /home/fnpedron/Siesta/siesta-dev/Tests/Pseudos/Fe_nc.psf

---- Pseudopotential check for Fe

Pseudized shells:
4s( 1.00) rc: 2.00
4p( 0.00) rc: 2.00
3d( 7.00) rc: 2.00
4f( 0.00) rc: 2.00
Valence configuration for ps generation: (assumed as above)
For Fe_nc, standard SIESTA heuristics set lmxkb to 3
 (one more than the basis l, including polarization orbitals).
Use PS.lmax or PS.KBprojectors blocks to override.

<basis_specs>
===============================================================================
Fe_nc                Z=  26    Mass=  55.845        Charge= 0.17977+309
Lmxo=2 Lmxkb= 3    BasisType=split      Semic=F
L=0  Nsemic=0  Cnfigmx=4
          i=1  nzeta=1  polorb=1  (4s)  (to be polarized perturbatively)
            splnorm:   0.15000    
               vcte:    40.000    
               rinn:  -0.90000    
               qcoe:    0.0000    
               qyuk:    0.0000    
               qwid:   0.10000E-01
                rcs:    0.0000    
            lambdas:    1.0000    
L=1  Nsemic=0  Cnfigmx=4
          i=1  nzeta=0  polorb=0  (4p)  (perturbative polarization orbital) (from 4s)
L=2  Nsemic=0  Cnfigmx=3
          i=1  nzeta=1  polorb=0  (3d)
            splnorm:   0.15000    
               vcte:    40.000    
               rinn:  -0.90000    
               qcoe:    0.0000    
               qyuk:    0.0000    
               qwid:   0.10000E-01
                rcs:    0.0000    
            lambdas:    1.0000    
-------------------------------------------------------------------------------
L=0  Nkbl=1  erefs: 0.17977+309
L=1  Nkbl=1  erefs: 0.17977+309
L=2  Nkbl=1  erefs: 0.17977+309
L=3  Nkbl=1  erefs: 0.17977+309
===============================================================================
</basis_specs>

Using PAO.SplitTailNorm
atom: Called for Fe_nc                 (Z =  26)
Maximum radius (at nrval) set to   50.00000 8518

read_vps: Pseudopotential generation method:
read_vps: ATM3      Troullier-Martins                       
Valence charge in pseudo generation:    8.00000

read_vps: Pseudopotential includes a core correction:
read_vps: Pseudo-core for xc-correction

xc_check: Exchange-correlation functional:
xc_check: Ceperley-Alder
V l=0 = -2*Zval/r beyond r=  2.8472
V l=1 = -2*Zval/r beyond r=  2.8472
V l=2 = -2*Zval/r beyond r=  2.8472
V l=3 = -2*Zval/r beyond r=  2.8472
All V_l potentials equal beyond r=  1.9894
This should be close to max(r_c) in ps generation
All pots = -2*Zval/r beyond r=  2.8472
Using large-core scheme (fit) for Vlocal

atom: Estimated core radius    2.84716
Fit of Vlocal with continuous 2nd derivative
Fitting vlocal at       1.9954
Choosing vlocal chloc cutoff:***  3.100644
qtot up to nchloc:    8.00000259
atom: Maximum radius for chlocal:    3.10064
atom: Maximum radius for r*vlocal+2*Zval:    3.10064

KBgen: Kleinman-Bylander projectors: 
GHOST: No ghost state for L =  0
   l= 0   rc=  1.991366   el= -0.319855   Ekb=  3.826230   kbcos=  0.253712
GHOST: No ghost state for L =  1
   l= 1   rc=  2.019582   el= -0.070931   Ekb=  3.335986   kbcos=  0.155791
GHOST: No ghost state for L =  2
   l= 2   rc=  1.989365   el= -0.307264   Ekb=-12.632066   kbcos= -0.657060
GHOST: No ghost state for L =  3
   l= 3   rc=  2.015527   el=  0.019538   Ekb= -1.701666   kbcos= -0.006384

KBgen: Total number of Kleinman-Bylander projectors:  16
atom: -------------------------------------------------------------------------

atom: SANKEY-TYPE ORBITALS:

SPLIT: Orbitals with angular momentum L= 0

SPLIT: Basis orbitals for state 4s

SPLIT: PAO cut-off radius determined from an
SPLIT: energy shift=  0.010000 Ry
Split based on tail norm

   izeta = 1
                 lambda =    1.000000
                     rc =    7.355669
                 energy =   -0.308198
                kinetic =    0.284874
    potential(screened) =   -0.593072
       potential(ionic) =   -5.763042

SPLIT: Orbitals with angular momentum L= 2

SPLIT: Basis orbitals for state 3d

SPLIT: PAO cut-off radius determined from an
SPLIT: energy shift=  0.010000 Ry
Split based on tail norm

   izeta = 1
                 lambda =    1.000000
                     rc =    4.584362
                 energy =   -0.296412
                kinetic =    8.773647
    potential(screened) =   -9.070058
       potential(ionic) =  -18.006145

POLgen: Perturbative polarization orbital with L=  1

POLgen: Polarization orbital for state 4s
Split based on tail norm

   izeta = 1
                     rc =    7.355669
                 energy =    0.004656
                kinetic =    0.554633
    potential(screened) =   -0.549977
       potential(ionic) =   -5.337881
atom: Total number of Sankey-type orbitals:  9

atm_pop: Valence configuration (for local Pseudopot. screening):
 4s( 2.00)                                                            
 4p( 0.00)                                                            
 3d( 6.00)                                                            
Vna: chval, zval:    8.00000   8.00000

Vna:  Cut-off radius for the neutral-atom potential:   7.355669
comcore: Pseudo-core radius Rcore=  3.839063

atom: _________________________________________________________________________

prinput: Basis input 

PAO.BasisType split     

%block ChemicalSpeciesLabel
    1   26 Fe_nc                   # Species index, atomic number, species label
%endblock ChemicalSpeciesLabel

%block PAO.Basis                 # Define Basis set
# WARNING: This information might be incomplete!
Fe_nc                 2                    # Species label, number of l-shells
 n=4   0   1 P   1                   # n, l, Nzeta, Polarization, NzetaPol
   7.356   
   1.000   
 n=3   2   1                         # n, l, Nzeta 
   4.584   
   1.000   
%endblock PAO.Basis

prinput: ----------------------------------------------------------------------

Dumping basis to NetCDF file Fe_nc.ion.nc
coor:   Atomic-coordinates input format  =     Cartesian coordinates
coor:                                            (in Bohr units)

siesta: Atomic coordinates (Bohr) and species
siesta:      0.00000   0.00000   3.64400  1        1
siesta:      0.00000   0.00000   0.00000  1        2
siesta:      0.00000   0.00000  -3.64400  1        3

siesta: System type = bulk      

initatomlists: Number of atoms, orbitals, and projectors:      3    27    48

siesta: ******************** Simulation parameters ****************************
siesta:
siesta: The following are some of the parameters of the simulation.
siesta: A complete list of the parameters used, including default values,
siesta: can be found in file out.fdf
siesta:
redata: Spin configuration                          = non-collinear
redata: Number of spin components                   = 4
redata: Time-Reversal Symmetry                      = F
redata: Spin spiral                                 = F
redata: Long output                                 =   F
redata: Number of Atomic Species                    =        1
redata: Charge density info will appear in .RHO file
redata: Write Mulliken Pop.                         = Atomic and Orbital charges
redata: Matel table size (NRTAB)                    =     1024
redata: Mesh Cutoff                                 =   100.0000 Ry
redata: Net charge of the system                    =     0.0000 |e|
redata: Min. number of SCF Iter                     =        0
redata: Max. number of SCF Iter                     =       20
redata: SCF mix quantity                            = Hamiltonian
redata: Mix DM or H after convergence               =   F
redata: Recompute H after scf cycle                 =   F
redata: Mix DM in first SCF step                    =   T
redata: Write Pulay info on disk                    =   F
redata: New DM Occupancy tolerance                  = 0.000000000001
redata: No kicks to SCF
redata: DM Mixing Weight for Kicks                  =     0.5000
redata: Require Harris convergence for SCF          =   F
redata: Harris energy tolerance for SCF             =     0.000100 eV
redata: Require DM convergence for SCF              =   T
redata: DM tolerance for SCF                        =     0.000100
redata: Require EDM convergence for SCF             =   F
redata: EDM tolerance for SCF                       =     0.001000 eV
redata: Require H convergence for SCF               =   T
redata: Hamiltonian tolerance for SCF               =     0.001000 eV
redata: Require (free) Energy convergence for SCF   =   F
redata: (free) Energy tolerance for SCF             =     0.000100 eV
redata: Using DFT-D3 dispersion                     =   F
redata: Using Saved Data (generic)                  =   F
redata: Use continuation files for DM               =   F
redata: Neglect nonoverlap interactions             =   F
redata: Method of Calculation                       = Diagonalization
redata: Electronic Temperature                      =   299.9863 K
redata: Fix the spin of the system                  =   F
redata: Max. number of TDED Iter                    =        1
redata: Number of TDED substeps                     =        3
redata: Dynamics option                             = Single-point calculation
mix.SCF: Pulay mixing                            = Pulay
mix.SCF:    Variant                              = stable
mix.SCF:    History steps                        = 8
mix.SCF:    Linear mixing weight                 =     0.010000
mix.SCF:    Mixing weight                        =     0.010000
mix.SCF:    SVD condition                        = 0.1000E-07
mix.SCF: Spin-component mixing                   all
redata: Save all siesta data in one NC              =   F
redata: ***********************************************************************

%block SCF.Mixers
  Pulay
%endblock SCF.Mixers

%block SCF.Mixer.Pulay
  # Mixing method
  method pulay
  variant stable

  # Mixing options
  weight 0.0100
  weight.linear 0.0100
  history 8
%endblock SCF.Mixer.Pulay

DM_history_depth set to one: no extrapolation allowed by default for geometry relaxation
Size of DM history Fstack: 1
Total number of electrons:    24.000000
Total ionic charge:    24.000000

Time-reversal symmetry not used.

siesta: k-grid: Number of k-points = 8
siesta: k-points from Monkhorst-Pack grid
siesta: k-cutoff (effective) =     6.350 Ang
siesta: k-point supercell and displacements
siesta: k-grid:     2     0     0      0.500
siesta: k-grid:     0     2     0      0.500
siesta: k-grid:     0     0     2      0.500

diag: Algorithm                                     = D&C
diag: Used triangular part                          = Lower
diag: Absolute tolerance                            =  0.100E-15
diag: Orthogonalization factor                      =  0.100E-05
diag: Memory factor                                 =  1.0000

superc: Internal auxiliary supercell:     3 x     3 x     3  =      27
superc: Number of atoms, orbitals, and projectors:     81    729   1296


ts: **************************************************************
ts: Save H and S matrices                           =    F
ts: Save DM and EDM matrices                        =    F
ts: Only save the overlap matrix S                  =    F
ts: **************************************************************

************************ Begin: TS CHECKS AND WARNINGS ************************
************************ End: TS CHECKS AND WARNINGS **************************


                     ====================================
                        Single-point calculation
                     ====================================

superc: Internal auxiliary supercell:     3 x     3 x     3  =      27
superc: Number of atoms, orbitals, and projectors:     81    729   1296

outcell: Unit cell vectors (Ang):
        6.350127    0.000000    0.000000
        0.000000    6.350127    0.000000
        0.000000    0.000000   10.583544

outcell: Cell vector modules (Ang)   :    6.350127    6.350127   10.583544
outcell: Cell angles (23,13,12) (deg):     90.0000     90.0000     90.0000
outcell: Cell volume (Ang**3)        :    426.7720
<dSpData1D:S at geom step 0
  <sparsity:sparsity for geom step 0
    nrows_g=27 nrows=27 sparsity=1.8340 nnzs=1337, refcount: 7>
  <dData1D:(new from dSpData1D) n=1337, refcount: 1>
refcount: 1>
new_DM -- step:     1
Initializing Density Matrix...
DM filled with atomic data (user-defined):
<dSpData2D:DM initialized from atoms
  <sparsity:sparsity for geom step 0
    nrows_g=27 nrows=27 sparsity=1.8340 nnzs=1337, refcount: 8>
  <dData2D:DM n=1337 m=4, refcount: 1>
refcount: 1>
     spin moment: {S} , |S| = {    1.50000    0.00000    0.00000 }     1.50000
No. of atoms with KB's overlaping orbs in proc 0. Max # of overlaps:       3      27

InitMesh: MESH = 40 x 40 x 64 = 102400
InitMesh: Mesh cutoff (required, used) =   100.000   101.065 Ry
New grid distribution [1]: sub = 2

stepf: Fermi-Dirac step function

siesta: Program's energy decomposition (eV):
siesta: Ebs     =       231.872459
siesta: Eions   =      2102.576618
siesta: Ena     =        92.089899
siesta: Ekin    =      2811.181314
siesta: Enl     =     -1816.257824
siesta: Eso     =         0.000000
siesta: Edftu   =         0.000000
siesta: DEna    =      -117.060814
siesta: DUscf   =        54.851615
siesta: DUext   =         0.000000
siesta: Ex      =     -1117.220375
siesta: Ec      =       -97.964858
siesta: Exc     =     -1215.185233
siesta: EbV     =         0.000000
siesta: eta*DQ  =         0.000000
siesta: Emadel  =         0.000000
siesta: Emeta   =         0.000000
siesta: Emolmec =         0.000000
siesta: Ekinion =         0.000000
siesta: Eharris =     -2223.725713
siesta: Etot    =     -2292.957660
siesta: FreeEng =     -2293.047194

        iscf     Eharris(eV)        E_KS(eV)     FreeEng(eV)     dDmax    Ef(eV) dHmax(eV)
   scf:    1    -2223.725713    -2292.957660    -2293.047194  0.994063 -9.357469 34.232462
     spin moment: {S} , |S| = {    1.61645    0.00000   -0.00000 }     1.61645
timer: Routine,Calls,Time,% = IterSCF        1       0.047  13.21
   scf:    2    -2300.224239    -2296.773717    -2296.855102  0.088827 -9.209847 31.378315
     spin moment: {S} , |S| = {    1.50920   -0.00000    0.00000 }     1.50920
   scf:    3    -2268.329695    -2299.951266    -2300.009310  0.346712 -7.594244 21.742022
     spin moment: {S} , |S| = {    3.34263    0.00000   -0.00000 }     3.34263
   scf:    4    -2107.751134    -2257.418757    -2257.459154  0.856362 -9.049967 50.369579
     spin moment: {S} , |S| = {    0.70199   -0.00000    0.00000 }     0.70199
   scf:    5    -2162.857575    -2225.005655    -2225.005655  0.603965 -3.042549 44.763502
     spin moment: {S} , |S| = {    0.62515   -0.00000    0.00000 }     0.62515
   scf:    6    -2336.197680    -2328.269996    -2328.270082  0.363168 -3.459605  3.006669
     spin moment: {S} , |S| = {    1.45096   -0.00000   -0.00000 }     1.45096
   scf:    7    -2118.716699    -2258.311602    -2258.311870  0.463420 -4.183671 38.876525
     spin moment: {S} , |S| = {    1.01231    0.00000    0.00000 }     1.01231
   scf:    8    -2277.980616    -2268.332015    -2268.332564  0.035766 -4.222557 36.036171
     spin moment: {S} , |S| = {    1.14146   -0.00000    0.00000 }     1.14146
   scf:    9    -2289.469662    -2279.206677    -2279.241580  0.063022 -4.502658 31.349459
     spin moment: {S} , |S| = {    1.55488    0.00000    0.00000 }     1.55488
   scf:   10    -2324.594620    -2304.154607    -2304.155831  0.156035 -3.611937 24.267942
     spin moment: {S} , |S| = {    1.60040   -0.00000   -0.00000 }     1.60040
   scf:   11    -2303.439540    -2307.172170    -2307.173180  0.433842 -5.080847 15.136222
     spin moment: {S} , |S| = {    2.12733   -0.00000   -0.00000 }     2.12733
   scf:   12    -2297.845015    -2320.951845    -2321.033555  0.435117 -4.764457 15.499055
     spin moment: {S} , |S| = {    1.16328   -0.00000   -0.00000 }     1.16328
   scf:   13    -2298.581955    -2313.857636    -2313.857636  0.385762 -2.981421 14.059361
     spin moment: {S} , |S| = {    0.88463   -0.00000    0.00000 }     0.88463
   scf:   14    -2333.228607    -2327.159530    -2327.159547  0.120499 -3.203490  5.341711
     spin moment: {S} , |S| = {    1.26319   -0.00000    0.00000 }     1.26319
   scf:   15    -2317.036893    -2322.964311    -2322.964323  0.062701 -4.057594  9.587079
     spin moment: {S} , |S| = {    1.06018   -0.00000    0.00000 }     1.06018
   scf:   16    -2328.624561    -2326.131921    -2326.131930  0.040362 -3.830784  5.320888
     spin moment: {S} , |S| = {    1.18920   -0.00000    0.00000 }     1.18920
   scf:   17    -2322.580633    -2324.452090    -2324.452092  0.025155 -3.298749  6.787810
     spin moment: {S} , |S| = {    1.13401   -0.00000    0.00000 }     1.13401
   scf:   18    -2328.415324    -2326.602309    -2326.602321  0.044844 -3.863190  4.622084
     spin moment: {S} , |S| = {    1.14465    0.00000   -0.00000 }     1.14465
   scf:   19    -2270.699219    -2312.729294    -2312.729580  0.349834 -4.130741 19.505540
     spin moment: {S} , |S| = {    1.19172    0.00000   -0.00000 }     1.19172
   scf:   20    -2333.098167    -2327.985630    -2327.985813  0.214490 -3.909626  5.243834
     spin moment: {S} , |S| = {    1.35618    0.00000   -0.00000 }     1.35618
SCF_NOT_CONV: SCF did not converge  in maximum number of steps.
Geom step, scf iteration, dmax:    0    20     0.385415

Using DM_out to compute the final energy and forces
No. of atoms with KB's overlaping orbs in proc 0. Max # of overlaps:       3      27

siesta: E_KS(eV) =            -2327.9856

siesta: E_KS - E_eggbox =     -2327.9856
     spin moment: {S} , |S| = {    1.35618    0.00000   -0.00000 }     1.35618

siesta: Atomic forces (eV/Ang):
----------------------------------------
   Tot    0.000000   -0.000000    0.000000
----------------------------------------
   Max    0.452271
   Res    0.213203    sqrt( Sum f_i^2 / 3N )
----------------------------------------
   Max    0.452271    constrained

Stress tensor Voigt[x,y,z,yz,xz,xy] (kbar):       -2.20       -2.20       13.45       -0.00       -0.00        0.00
(Free)E + p*V (eV/cell)    -2328.7895
Target enthalpy (eV/cell)    -2327.9858

mulliken: Atomic and Orbital Populations:

Species: Fe_nc               

Atom      Orb        Charge      Spin       Svec
----------------------------------------------------------------
    1  1 4s         1.38044   0.07536     -0.012  -0.000   0.074
    1  2 3dxy       1.30932   0.68259      0.048  -0.000   0.681
    1  3 3dyz       1.30842   0.49309     -0.009   0.000   0.493
    1  4 3dz2       1.37981   0.47108      0.001  -0.000   0.471
    1  5 3dxz       1.30842   0.49309     -0.009  -0.000   0.493
    1  6 3dx2-y2    1.30896   0.68297      0.048  -0.000   0.681
    1  7 4Ppy       0.02264   0.00377      0.001   0.000  -0.004
    1  8 4Ppz       0.03195   0.01616      0.002  -0.000   0.016
    1  9 4Ppx       0.02264   0.00377      0.001   0.000  -0.004
    1     Total     8.07262   2.90321      0.072  -0.000   2.902

    2  1 4s         0.95992   0.02669      0.027   0.000   0.000
    2  2 3dxy       1.38136   0.42235      0.422   0.000   0.000
    2  3 3dyz       1.22843   0.10721      0.107  -0.000   0.000
    2  4 3dz2       1.21887   0.10394      0.104   0.000   0.000
    2  5 3dxz       1.22843   0.10721      0.107   0.000   0.000
    2  6 3dx2-y2    1.38208   0.42231      0.422   0.000   0.000
    2  7 4Ppy       0.11136   0.00915      0.009  -0.000  -0.000
    2  8 4Ppz       0.23295   0.00484      0.005  -0.000   0.000
    2  9 4Ppx       0.11136   0.00915      0.009  -0.000  -0.000
    2     Total     7.85476   1.21287      1.213   0.000   0.000

    3  1 4s         1.38044   0.07536     -0.012   0.000  -0.074
    3  2 3dxy       1.30932   0.68259      0.048  -0.000  -0.681
    3  3 3dyz       1.30842   0.49309     -0.009  -0.000  -0.493
    3  4 3dz2       1.37981   0.47108      0.001  -0.000  -0.471
    3  5 3dxz       1.30842   0.49309     -0.009   0.000  -0.493
    3  6 3dx2-y2    1.30896   0.68297      0.048  -0.000  -0.681
    3  7 4Ppy       0.02264   0.00377      0.001  -0.000   0.004
    3  8 4Ppz       0.03195   0.01616      0.002   0.000  -0.016
    3  9 4Ppx       0.02264   0.00377      0.001   0.000   0.004
    3     Total     8.07262   2.90321      0.072  -0.000  -2.902

----------------------------------------------------------------
Total              24.00000   1.35618      1.356   0.000  -0.000


siesta: Program's energy decomposition (eV):
siesta: Ebs     =      -186.645381
siesta: Eions   =      2102.576618
siesta: Ena     =        92.089899
siesta: Ekin    =      2283.091864
siesta: Enl     =     -1441.356584
siesta: Eso     =         0.000000
siesta: Edftu   =         0.000000
siesta: DEna    =       -24.650715
siesta: DUscf   =         2.595430
siesta: DUext   =         0.000000
siesta: Ex      =     -1042.970700
siesta: Ec      =       -94.208208
siesta: Exc     =     -1137.178908
siesta: EbV     =         0.000000
siesta: eta*DQ  =         0.000000
siesta: Emadel  =         0.000000
siesta: Emeta   =         0.000000
siesta: Emolmec =         0.000000
siesta: Ekinion =         0.000000
siesta: Eharris =     -2333.098167
siesta: Etot    =     -2327.985630
siesta: FreeEng =     -2327.985813

siesta: Final energy (eV):
siesta:  Band Struct. =    -186.645381
siesta:       Kinetic =    2283.091864
siesta:       Hartree =    1360.318206
siesta:         Edftu =       0.000000
siesta:       Eso     =       0.000000
siesta:    Ext. field =       0.000000
siesta:         Exch. =   -1042.970700
siesta:         Corr. =     -94.208208
siesta:     Bulk bias =       0.000000
siesta:   Exch.-corr. =   -1137.178908
siesta:  Ion-electron =   -4642.529414
siesta:       Ion-ion =    -191.687379
siesta:       Ekinion =       0.000000
siesta: D3 dispersion =       0.000000
siesta:         Total =   -2327.985630
siesta:         Fermi =      -3.909626

siesta: Atomic forces (eV/Ang):
siesta:      1    0.000000   -0.000000    0.452271
siesta:      2    0.000000    0.000000   -0.000000
siesta:      3   -0.000000   -0.000000   -0.452271
siesta: ----------------------------------------
siesta:    Tot    0.000000   -0.000000    0.000000

siesta: Stress tensor (static) (eV/Ang**3):
siesta:    -0.001374    0.000000   -0.000000
siesta:     0.000000   -0.001374   -0.000000
siesta:    -0.000000   -0.000000    0.008397

siesta: Cell volume =        426.771969 Ang**3

siesta: Pressure (static):
siesta:                Solid            Molecule  Units
siesta:          -0.00002051         -0.00003535  Ry/Bohr**3
siesta:          -0.00188315         -0.00324550  eV/Ang**3
siesta:          -3.01713094         -5.19986950  kBar
(Free)E+ p_basis*V_orbitals  =       -2325.911608
(Free)Eharris+ p_basis*V_orbitals  =       -2331.024145
     spin moment: {S} , |S| = {    1.35618    0.00000   -0.00000 }     1.35618

cite: Please see "fe_noncol_kp.bib" for an exhaustive BiBTeX file.
cite: Please clearly indicate Siesta version in published work: 5.0.0-alpha-123-gfb8fd7d02
cite: This calculation has made use of the following articles
cite: which are encouraged to be cited in a published work.
        Primary SIESTA paper
          DOI: www.doi.org/10.1088/0953-8984/14/11/302


timer: Elapsed wall time (sec) =       1.377
timer: CPU execution times (sec):

Routine            Calls   Time/call    Tot.time        %
siesta                 1       1.377       1.377   100.00
Setup                  1       0.037       0.037     2.69
bands                  1       0.000       0.000     0.00
KSV_init               1       0.000       0.000     0.00
IterGeom               1       1.339       1.339    97.28
geom_init              1       0.272       0.272    19.78
state_init             1       0.024       0.024     1.76
hsparse                1       0.000       0.000     0.01
overlap                1       0.023       0.023     1.67
Setup_H0               1       0.203       0.203    14.71
naefs                  2       0.000       0.000     0.01
MolMec                 2       0.000       0.000     0.00
kinefsm                2       0.011       0.022     1.61
nlefsm                 2       0.064       0.129     9.36
DHSCF_Init             1       0.052       0.052     3.81
DHSCF1                 1       0.006       0.006     0.40
INITMESH               1       0.000       0.000     0.00
DHSCF2                 1       0.047       0.047     3.40
REMESH                 1       0.004       0.004     0.30
REORD                196       0.000       0.017     1.22
PHION                  1       0.033       0.033     2.36
COMM_BSC             358       0.000       0.023     1.68
POISON                23       0.002       0.050     3.63
fft                   46       0.001       0.038     2.73
setup_H               21       0.042       0.891    64.71
DHSCF                 22       0.045       0.997    72.41
DHSCF3                22       0.042       0.929    67.46
rhoofd                22       0.012       0.256    18.60
XC                    22       0.014       0.313    22.70
GXC-CellXC            22       0.013       0.296    21.50
gridxc@cellXC         22       0.013       0.296    21.50
vmat                  22       0.011       0.246    17.88
IterSCF               20       0.048       0.955    69.37
compute_dm            20       0.005       0.104     7.56
diagon                20       0.005       0.104     7.54
cdiag                320       0.000       0.075     5.48
cdiag1               320       0.000       0.004     0.26
cdiag2               320       0.000       0.017     1.26
cdiag3               320       0.000       0.051     3.67
cdiag4               160       0.000       0.002     0.17
MIXER                 20       0.000       0.003     0.19
PostSCF                1       0.111       0.111     8.09
DHSCF4                 1       0.068       0.068     4.95
dfscf                  1       0.058       0.058     4.21
overfsm                1       0.000       0.000     0.02
state_analysis         1       0.000       0.000     0.02
siesta_move            1       0.000       0.000     0.00
Analysis               1       0.000       0.000     0.02
optical                1       0.000       0.000     0.00
  

>> End of run:  28-SEP-2023  15:35:24
Job completed
